<?xml version="1.0" standalone="no"?>
<!DOCTYPE svg PUBLIC "-//W3C//DTD SVG 20010904//EN"
 "http://www.w3.org/TR/2001/REC-SVG-20010904/DTD/svg10.dtd">
<svg version="1.0" xmlns="http://www.w3.org/2000/svg"
 width="7559.000000pt" height="7559.000000pt" viewBox="0 0 7559.000000 7559.000000"
 preserveAspectRatio="xMidYMid meet">
<metadata>
Created by potrace 1.15, written by Peter Selinger 2001-2017
</metadata>
<g transform="translate(0.000000,7559.000000) scale(0.100000,-0.100000)"
fill="#000000" stroke="none">
<path d="M36450 71893 c-978 -15 -1009 -17 -1925 -97 -473 -41 -878 -78 -900
-80 -22 -3 -499 -73 -1060 -156 l-1020 -150 -840 -184 c-462 -102 -1079 -234
-1371 -295 -593 -123 -858 -183 -1079 -241 -222 -58 -2478 -814 -2685 -900
-416 -171 -548 -232 -1335 -625 -920 -457 -1230 -624 -2140 -1150 -1211 -699
-1618 -943 -1920 -1154 -82 -57 -271 -187 -418 -288 -282 -193 -561 -399 -718
-529 -142 -119 -586 -567 -653 -660 -67 -92 -221 -341 -343 -554 -94 -163
-238 -495 -307 -703 -96 -291 -133 -519 -148 -907 l-11 -285 -45 -60 c-142
-185 -540 -697 -624 -803 -104 -129 -788 -933 -967 -1137 -58 -66 -151 -172
-206 -235 -55 -63 -152 -168 -215 -235 -202 -211 -297 -376 -435 -755 -86
-236 -192 -644 -305 -1170 -28 -129 -71 -318 -95 -420 -89 -374 -124 -564
-162 -890 -15 -131 -17 -357 -20 -2315 -3 -1330 0 -2253 6 -2385 5 -118 26
-350 46 -515 19 -165 56 -469 81 -675 50 -418 103 -712 194 -1079 32 -130 84
-346 115 -481 119 -516 309 -1229 430 -1610 204 -644 645 -1947 735 -2170 99
-248 208 -506 340 -810 78 -179 197 -453 265 -610 378 -877 902 -1949 1529
-3130 86 -162 274 -529 418 -815 143 -286 300 -596 348 -690 48 -93 140 -273
205 -400 65 -126 177 -336 250 -465 442 -782 460 -812 832 -1371 203 -305 468
-707 588 -894 255 -397 607 -879 972 -1332 134 -167 330 -419 435 -560 106
-142 312 -406 458 -588 146 -181 397 -498 558 -702 737 -937 1558 -1869 2062
-2340 416 -389 724 -628 1526 -1189 145 -101 323 -228 396 -282 73 -54 163
-119 200 -144 109 -76 596 -362 750 -442 612 -315 785 -407 1018 -534 146 -80
306 -165 355 -188 475 -223 451 -213 1159 -485 347 -134 1357 -514 1526 -574
102 -37 484 -157 710 -224 786 -231 1794 -465 2592 -601 822 -141 1249 -189
1743 -199 l320 -6 6 -775 c5 -520 12 -857 22 -1025 9 -137 19 -338 22 -445 12
-403 46 -1187 66 -1525 15 -274 22 -562 29 -1320 7 -691 15 -1048 26 -1240 15
-233 18 -602 24 -2665 5 -1691 10 -2429 18 -2510 7 -63 21 -245 32 -405 12
-159 34 -429 50 -600 16 -170 31 -357 35 -415 3 -58 21 -285 40 -505 19 -220
46 -625 60 -899 22 -446 25 -585 25 -1308 l0 -809 -40 -66 c-31 -52 -40 -77
-40 -112 0 -50 26 -103 59 -121 l21 -11 0 -4834 0 -4835 145 0 145 0 0 4947 0
4946 107 101 c443 417 1384 1364 1949 1961 598 633 639 674 1039 1051 215 203
505 477 645 609 140 133 446 419 680 636 1593 1480 2741 2546 3020 2805 179
165 552 498 830 740 278 241 570 495 650 564 80 70 307 267 504 439 311 270
798 712 2241 2031 307 280 387 350 765 671 107 91 481 408 830 704 349 297
784 665 965 819 1199 1018 1543 1310 1720 1460 178 152 488 390 1980 1526 478
363 1821 1385 2155 1640 135 103 758 559 1385 1015 1130 821 1284 932 1855
1345 162 117 374 270 470 340 96 70 308 223 470 340 162 117 399 288 525 380
1530 1107 1425 1035 3648 2507 862 570 2613 1566 3205 1823 90 39 196 88 235
109 40 21 88 42 108 45 138 24 162 209 36 266 -31 15 -65 20 -133 20 -87 0
-99 3 -250 60 -248 94 -648 297 -839 425 -88 60 -196 138 -240 175 -44 36
-325 257 -625 490 -300 233 -781 613 -1070 844 -785 629 -2247 1708 -3217
2376 -346 237 -1054 809 -1439 1160 -407 372 -513 469 -609 560 -110 104 -217
170 -277 170 -75 0 -143 -79 -134 -154 6 -52 30 -83 105 -132 34 -22 103 -81
154 -130 51 -49 196 -184 322 -300 127 -116 268 -246 315 -289 110 -101 469
-400 835 -696 200 -161 395 -307 630 -469 554 -384 957 -674 1725 -1241 738
-546 915 -681 1347 -1027 414 -331 928 -735 1433 -1127 113 -87 255 -199 315
-249 154 -125 436 -310 601 -393 124 -63 410 -199 489 -232 30 -13 29 -14
-142 -97 -228 -110 -1410 -753 -1673 -909 -744 -442 -1038 -624 -1510 -937
-1900 -1260 -2099 -1395 -2560 -1728 -261 -189 -605 -438 -765 -553 -159 -116
-369 -267 -465 -337 -96 -70 -308 -223 -470 -340 -162 -117 -374 -270 -470
-340 -96 -70 -308 -223 -470 -340 -1769 -1279 -2870 -2086 -3570 -2619 -3725
-2836 -3370 -2563 -3610 -2768 -163 -139 -389 -331 -1968 -1670 -328 -279
-714 -606 -857 -728 -143 -122 -453 -385 -689 -585 -389 -330 -763 -667 -2261
-2038 -170 -156 -788 -700 -1372 -1208 -882 -768 -1184 -1038 -1780 -1592
-395 -366 -1098 -1020 -1563 -1451 -465 -432 -973 -905 -1130 -1050 -157 -146
-596 -559 -977 -918 -557 -526 -755 -721 -1020 -1001 -744 -787 -878 -924
-1489 -1532 l-639 -635 -7 710 c-8 800 -35 1440 -87 2015 -16 179 -35 404 -41
500 -6 96 -22 288 -35 425 -13 138 -33 372 -44 520 -12 149 -26 333 -32 410
-8 97 -14 876 -19 2510 -7 1999 -11 2410 -24 2625 -11 178 -19 550 -26 1235
-7 754 -14 1061 -30 1330 -21 376 -53 1103 -70 1620 -6 176 -16 374 -21 440
-5 66 -12 497 -16 957 l-5 837 2608 4 c2572 3 2613 3 2909 25 989 73 1359 106
1645 147 491 70 626 117 2040 700 759 313 1196 519 1680 790 135 76 427 238
650 360 579 318 826 463 1150 673 613 399 1030 693 1630 1151 322 245 783 594
1025 776 383 288 926 724 1095 879 30 28 276 260 545 516 1066 1010 1790 1789
2297 2470 217 292 263 365 618 979 351 610 589 1062 699 1328 38 93 79 191 91
218 22 49 87 215 217 550 76 198 171 475 214 625 58 203 176 806 224 1140 25
179 77 519 115 755 52 324 78 517 102 780 l33 350 3 5545 2 5545 -60 1685
c-37 1026 -74 1925 -95 2300 -53 928 -130 2080 -180 2690 -43 527 -47 561
-125 1047 -119 751 -184 1054 -315 1487 -193 636 -393 1123 -660 1612 -271
496 -434 763 -643 1049 -273 375 -478 576 -1087 1066 -391 314 -1092 811
-1760 1247 -932 609 -1437 936 -1775 1147 -195 122 -521 329 -725 460 -203
131 -435 277 -515 325 -479 286 -593 352 -833 484 -300 164 -557 295 -697 354
-355 149 -818 334 -1186 472 -236 89 -546 206 -689 260 -301 113 -901 306
-1290 414 -148 41 -529 147 -845 236 l-575 160 -998 205 -997 204 -603 80
c-1132 151 -1314 167 -2127 181 -509 9 -3772 11 -4320 3z m4920 -302 c334 -17
644 -52 1510 -167 l565 -75 980 -200 980 -200 825 -230 c1054 -294 1464 -422
2060 -646 256 -96 564 -212 685 -258 121 -45 294 -113 385 -150 656 -268 750
-309 995 -438 516 -272 1037 -580 1665 -983 223 -144 549 -351 725 -461 274
-171 1316 -845 1940 -1254 105 -69 417 -284 695 -479 640 -448 1122 -829 1448
-1145 327 -316 583 -679 964 -1365 272 -489 446 -883 614 -1387 197 -594 267
-896 404 -1763 78 -492 81 -520 125 -1065 49 -608 115 -1592 170 -2540 22
-381 59 -1259 100 -2405 l66 -1805 -4 -5430 -3 -5430 -32 -360 c-25 -275 -48
-455 -98 -765 -36 -223 -89 -571 -119 -775 -54 -373 -158 -911 -215 -1115 -80
-283 -278 -812 -527 -1405 -98 -234 -329 -670 -661 -1245 -332 -577 -394 -677
-560 -905 -509 -699 -1252 -1497 -2437 -2617 -510 -482 -878 -794 -1380 -1171
-176 -132 -635 -480 -1020 -772 -1180 -896 -1822 -1320 -2845 -1880 -179 -98
-451 -249 -605 -335 -523 -294 -1070 -551 -1800 -847 -115 -47 -264 -108 -330
-135 -350 -146 -838 -336 -984 -383 -392 -126 -743 -169 -2201 -272 l-375 -26
-2505 -4 c-1378 -3 -2528 -2 -2556 2 l-51 6 -5 64 c-7 84 -34 128 -94 151
-106 40 -193 -40 -194 -180 l0 -38 -277 6 c-551 13 -909 54 -1768 201 -934
160 -2081 440 -2965 722 -223 71 -1095 393 -1765 651 -170 66 -389 150 -485
187 -277 107 -687 300 -1024 484 -171 93 -504 269 -741 391 -478 247 -908 499
-1125 659 -74 55 -259 187 -410 293 -850 596 -1146 826 -1554 1207 -474 444
-1314 1397 -1981 2246 -121 154 -366 462 -544 685 -179 223 -404 511 -500 640
-96 129 -290 379 -431 555 -393 491 -718 936 -978 1340 -124 193 -390 598
-592 900 -273 410 -406 621 -525 830 -87 154 -213 377 -280 495 -67 118 -167
303 -222 410 -245 476 -335 654 -563 1110 -134 267 -320 629 -413 805 -291
547 -674 1291 -772 1495 -51 107 -178 373 -283 590 -203 423 -348 742 -512
1125 -56 132 -165 382 -242 555 -77 173 -162 369 -188 435 -26 66 -76 188
-110 270 -86 206 -173 454 -446 1270 -300 895 -386 1166 -478 1505 -99 367
-216 824 -266 1045 -23 99 -70 299 -106 445 -110 446 -150 666 -205 1115 -128
1054 -119 957 -130 1440 -6 257 -8 1223 -6 2320 4 1829 5 1885 25 2065 31 269
56 424 108 647 25 109 85 376 134 593 107 479 168 733 216 905 47 169 144 434
204 560 57 119 183 301 241 347 23 18 80 78 127 133 48 55 154 177 237 270 83
94 227 260 320 369 94 110 265 311 380 446 251 294 404 481 631 774 l169 219
5 -1579 c5 -1496 6 -1581 23 -1612 28 -51 72 -74 135 -69 65 5 105 39 121 102
8 31 11 562 11 1801 l0 1757 35 62 c53 95 95 208 95 255 0 72 -54 150 -104
150 -22 0 -21 70 5 245 24 166 65 342 112 480 57 167 184 463 250 585 101 183
295 497 365 590 65 86 405 429 562 568 164 144 587 449 1233 887 160 109 558
353 917 562 724 423 1574 910 1890 1083 411 225 1977 1005 2190 1090 85 34
219 89 298 122 200 83 2469 837 2667 887 235 59 514 120 1030 227 253 52 849
181 1325 285 l865 190 1015 149 1015 150 910 80 c899 79 915 80 1365 89 623
12 5209 6 5460 -8z"/>
<path d="M41963 60435 c-18 -8 -54 -33 -80 -57 -27 -24 -76 -68 -111 -97 -35
-30 -97 -93 -139 -140 -42 -47 -100 -112 -130 -143 l-55 -58 -124 0 c-134 0
-159 -7 -203 -53 -46 -50 -35 -173 19 -222 27 -24 25 -40 -7 -65 -54 -42 -237
-226 -307 -309 l-71 -84 -5 174 c-5 165 -6 177 -33 231 -15 31 -39 64 -54 73
-63 42 -154 23 -191 -39 -18 -29 -19 -50 -13 -396 6 -326 9 -369 25 -403 48
-98 168 -121 274 -53 50 32 132 119 232 246 73 94 487 514 475 482 -2 -7 -52
-82 -110 -167 -131 -193 -172 -276 -316 -633 -32 -79 -69 -241 -69 -303 0
-129 108 -195 233 -144 12 5 -8 -35 -54 -111 -81 -133 -135 -249 -216 -464
-69 -181 -78 -214 -103 -374 -27 -173 -26 -249 3 -306 56 -112 200 -116 322
-9 19 17 35 28 35 24 0 -3 -24 -63 -54 -133 -57 -134 -81 -211 -92 -302 -3
-30 -17 -99 -30 -152 -34 -137 -34 -265 1 -323 47 -80 142 -100 237 -48 53 28
175 144 369 349 57 60 149 153 205 205 55 52 128 125 162 163 34 39 64 68 66
65 9 -9 -213 -355 -349 -544 -40 -55 -103 -154 -140 -220 -37 -66 -98 -167
-135 -225 -86 -133 -94 -150 -176 -355 -64 -159 -68 -176 -72 -262 -3 -71 0
-99 13 -127 39 -82 132 -107 231 -62 126 58 373 343 715 824 341 481 454 634
617 839 168 211 302 357 309 336 8 -24 -18 -130 -47 -189 -25 -52 -224 -360
-603 -931 -54 -81 -138 -206 -187 -277 -235 -337 -549 -898 -738 -1316 -73
-161 -273 -724 -308 -865 -36 -147 -16 -226 66 -267 105 -53 253 17 459 216
190 185 350 399 621 831 231 367 333 519 494 733 159 212 225 291 359 436 108
116 127 122 86 24 -72 -170 -222 -409 -510 -813 -343 -480 -426 -609 -636
-990 -104 -188 -322 -614 -459 -895 -44 -91 -130 -262 -190 -380 -125 -244
-166 -359 -239 -661 -57 -233 -56 -267 4 -331 30 -32 45 -41 83 -45 25 -3 62
0 82 7 73 24 299 211 412 341 88 101 176 223 394 544 258 381 387 565 515 735
56 74 186 252 290 395 556 767 924 1178 1380 1539 402 318 632 470 825 546
l50 20 0 -26 c0 -102 -78 -268 -253 -533 -73 -110 -197 -301 -277 -423 -80
-123 -210 -311 -290 -418 -81 -107 -198 -269 -261 -360 -64 -91 -198 -280
-299 -420 -380 -531 -548 -810 -820 -1365 -124 -255 -217 -545 -208 -653 10
-117 115 -181 221 -134 73 32 106 63 320 297 219 240 375 432 771 950 316 414
664 846 998 1243 410 486 831 900 1356 1333 108 90 260 218 337 285 213 184
557 445 770 584 93 60 97 58 66 -53 -57 -207 -231 -513 -539 -947 -97 -136
-483 -643 -632 -831 -250 -313 -572 -850 -758 -1264 -28 -60 -98 -213 -157
-340 -221 -476 -264 -578 -385 -915 -27 -74 -65 -180 -86 -235 -89 -243 -96
-355 -28 -427 62 -64 140 -61 214 8 l48 45 6 -44 c14 -94 74 -147 167 -147 75
0 132 30 244 128 210 184 405 405 677 767 331 440 490 625 814 945 269 266
323 311 403 335 l24 7 -6 -105 c-11 -196 -32 -247 -317 -787 -56 -107 -150
-278 -208 -379 -58 -101 -128 -234 -156 -295 -43 -96 -50 -120 -50 -177 -1
-56 3 -70 26 -101 52 -69 140 -75 233 -16 121 75 351 314 747 775 234 272 356
392 548 537 234 178 339 237 457 261 30 6 32 5 39 -31 11 -59 -3 -361 -21
-449 -29 -141 -81 -277 -188 -491 -118 -237 -245 -526 -288 -658 -71 -215 -61
-330 33 -399 44 -33 134 -35 200 -5 86 40 149 100 407 387 86 96 269 226 289
206 15 -15 -46 -149 -118 -260 -106 -164 -236 -375 -281 -460 -56 -104 -128
-298 -140 -379 -14 -85 -6 -224 15 -263 35 -67 87 -95 180 -95 134 1 190 22
516 195 88 46 141 68 179 73 l54 7 -5 -104 c-7 -119 -12 -135 -137 -418 -117
-264 -221 -598 -221 -705 1 -125 77 -196 212 -196 80 0 115 10 264 76 67 30
126 54 132 54 5 0 11 -75 14 -182 5 -200 11 -223 68 -271 80 -68 253 -61 454
17 l86 34 0 -156 c0 -180 7 -216 52 -259 47 -45 91 -53 294 -53 l181 0 28 -42
c65 -100 105 -126 203 -134 37 -3 94 -10 127 -16 56 -11 65 -16 135 -88 75
-76 198 -174 255 -203 53 -27 139 -127 178 -208 27 -57 50 -88 87 -119 37 -31
50 -49 50 -68 0 -51 39 -155 83 -221 24 -37 52 -82 62 -101 10 -19 32 -53 51
-76 l33 -41 -737 -6 c-711 -6 -749 -7 -1082 -37 -423 -37 -1307 -138 -1965
-225 -1608 -212 -3657 -443 -4650 -525 -628 -52 -897 -79 -1240 -125 -624 -84
-863 -111 -1305 -151 -350 -30 -453 -43 -840 -100 -337 -49 -510 -78 -795
-130 -227 -42 -410 -64 -522 -64 -99 0 -97 -5 -53 147 16 57 36 151 44 210 9
60 25 167 36 238 16 97 25 229 35 515 8 212 16 419 20 460 19 244 25 734 26
2145 1 1229 7 1856 25 2825 47 2571 37 2274 99 3175 58 858 72 994 236 2410
88 762 129 1070 224 1680 83 535 122 727 182 910 49 148 50 150 77 147 80 -9
142 46 158 139 31 181 -37 309 -164 309 -100 0 -150 -44 -222 -193 -44 -90
-141 -363 -172 -482 -73 -280 -237 -1361 -339 -2235 -179 -1530 -202 -1757
-265 -2685 l-59 -880 -27 -1455 c-21 -1136 -28 -1892 -34 -3450 -7 -1645 -11
-2040 -24 -2250 -8 -140 -20 -399 -26 -575 -7 -228 -16 -358 -30 -450 -11 -71
-27 -177 -35 -234 -8 -57 -29 -156 -47 -220 -28 -102 -32 -132 -33 -241 0
-139 10 -171 65 -210 84 -60 444 -47 860 30 558 104 1180 192 1620 230 387 32
808 81 1345 156 252 34 631 72 1200 119 988 81 3085 318 4690 530 585 77 1506
184 1915 221 295 27 297 27 1430 33 1262 7 1170 1 1222 73 l23 33 0 600 c0
356 -5 677 -13 790 -6 105 -17 325 -22 490 -6 165 -16 361 -21 435 -6 74 -14
567 -19 1095 -7 723 -13 1008 -25 1155 -11 136 -19 418 -25 935 -5 426 -15
846 -24 990 -8 138 -18 327 -21 420 -4 94 -24 422 -45 730 -22 308 -44 697
-50 865 -6 168 -18 431 -26 585 -20 352 -32 3176 -16 3395 8 105 22 181 63
345 l52 210 5 214 c3 147 0 227 -8 254 -15 51 -84 119 -136 135 -33 9 -1215
12 -5526 12 -3017 0 -5487 3 -5491 6 -3 3 15 38 41 77 68 105 91 169 92 248 0
75 -21 117 -79 156 -40 27 -108 30 -158 8z m10981 -920 c-2 -133 -5 -150 -53
-344 -28 -112 -56 -247 -62 -301 -14 -127 -5 -3302 9 -3510 6 -80 16 -293 22
-475 6 -181 29 -584 50 -895 22 -311 44 -680 50 -820 6 -140 15 -320 21 -400
6 -80 14 -485 19 -900 6 -527 14 -815 25 -955 12 -150 18 -437 25 -1145 5
-520 13 -1009 19 -1087 6 -79 18 -321 26 -540 8 -218 20 -469 25 -557 5 -89
13 -376 17 -638 l6 -478 -131 0 -132 0 0 46 c0 61 -26 102 -95 147 -30 20 -62
51 -71 69 -9 18 -34 59 -56 90 -23 34 -42 78 -49 110 -27 138 -38 160 -110
231 -38 37 -69 73 -69 81 0 48 -181 252 -269 304 -68 39 -165 117 -195 156
-29 39 -122 114 -174 140 -34 17 -198 55 -242 56 -21 0 -30 11 -53 60 -22 48
-37 65 -75 87 -46 27 -52 28 -223 32 l-176 3 -5 168 c-5 159 -6 171 -31 213
-19 32 -40 52 -72 67 -41 20 -57 22 -148 17 -90 -4 -114 -9 -202 -45 -55 -22
-112 -44 -127 -47 l-28 -7 0 163 c0 184 -8 224 -51 274 -42 48 -84 58 -225 53
-112 -3 -124 -6 -204 -41 -47 -21 -91 -41 -97 -44 -7 -3 -13 2 -13 10 0 38 97
303 179 490 122 277 140 341 147 526 10 215 -13 293 -97 336 -34 18 -261 21
-339 4 -46 -10 -188 -78 -390 -186 -41 -23 -86 -44 -99 -48 -23 -7 -24 -6 -17
26 10 56 84 232 130 310 63 109 194 320 266 429 115 174 144 264 145 440 0
119 -1 127 -27 172 -109 184 -460 75 -753 -235 -59 -62 -102 -101 -97 -87 28
71 106 239 207 445 122 246 162 349 202 515 22 92 26 134 30 346 6 257 -2 346
-37 414 -45 88 -127 118 -277 101 -169 -19 -258 -56 -458 -192 -283 -192 -479
-369 -728 -659 -82 -96 -156 -182 -165 -190 -8 -8 22 55 67 140 236 448 263
523 283 775 18 248 -1 354 -73 408 -61 45 -183 37 -334 -22 -150 -58 -217
-111 -520 -415 -323 -323 -498 -527 -803 -936 -184 -247 -245 -325 -230 -295
27 54 147 253 206 345 217 332 430 714 476 851 46 137 58 408 22 477 -8 15
-26 38 -41 52 -23 22 -36 25 -94 25 -59 0 -72 -4 -105 -29 -68 -52 -188 -233
-396 -601 -444 -785 -445 -788 -267 -408 42 89 106 228 143 310 224 499 512
991 779 1328 718 906 1081 1453 1199 1805 45 134 59 228 54 355 -3 92 -6 106
-31 144 -32 49 -92 80 -150 81 -45 0 -164 -38 -245 -79 -129 -65 -635 -437
-861 -634 -69 -60 -224 -189 -343 -288 -733 -607 -1146 -1038 -1924 -2004
-137 -170 -351 -443 -474 -605 -307 -403 -669 -856 -670 -837 0 14 248 493
327 630 106 186 248 399 504 757 124 173 263 369 309 435 46 66 138 192 204
280 162 215 691 1013 772 1165 85 158 126 298 139 470 11 144 -21 237 -95 275
-99 51 -396 -50 -690 -236 -180 -113 -576 -411 -770 -578 -329 -283 -752 -775
-1210 -1406 -95 -132 -239 -328 -319 -435 -156 -211 -336 -468 -531 -760 -185
-277 -374 -530 -386 -517 -18 18 81 239 362 802 516 1037 596 1175 1073 1845
259 365 386 564 476 745 89 179 105 232 112 390 6 135 -3 187 -43 235 -39 46
-78 62 -151 61 -104 -1 -153 -29 -305 -178 -309 -303 -617 -711 -989 -1310
-78 -125 -180 -284 -228 -353 -114 -167 -320 -419 -321 -394 0 19 141 408 187
514 173 399 522 1015 783 1385 54 77 170 250 257 385 86 135 225 346 308 470
238 356 267 429 268 686 0 127 -2 146 -22 188 -34 68 -86 96 -182 96 -95 0
-164 -31 -270 -122 -166 -143 -416 -456 -827 -1033 -156 -220 -289 -404 -295
-410 -10 -10 25 56 91 170 19 33 67 105 107 160 122 168 316 474 366 580 59
126 79 206 79 325 0 143 -39 206 -140 229 -59 13 -131 -2 -183 -38 -23 -16
-201 -187 -396 -381 l-354 -351 6 50 c14 118 212 529 374 778 67 102 93 173
93 251 0 97 -62 162 -153 162 -84 0 -150 -46 -342 -240 -77 -78 -149 -146
-159 -152 -17 -9 -18 -7 -13 21 9 42 99 282 153 404 23 54 87 171 142 260 54
89 127 212 162 272 86 151 175 278 344 494 166 212 199 268 204 355 3 51 0 67
-20 96 -34 50 -83 80 -132 80 -79 -1 -114 -27 -342 -259 -120 -122 -219 -219
-221 -217 -10 9 85 178 162 290 46 67 118 182 161 256 42 74 90 154 106 178
l29 42 5532 -2 5532 -3 -1 -140z"/>
<path d="M35170 60313 c-55 -3 -616 -45 -850 -63 -69 -6 -303 -15 -520 -21
-217 -5 -618 -21 -890 -35 -272 -14 -828 -40 -1235 -59 l-740 -35 -3080 0
c-3061 0 -3081 0 -3120 20 -55 28 -288 28 -437 1 -57 -11 -159 -22 -228 -25
-152 -7 -244 -21 -283 -44 -39 -23 -67 -72 -67 -118 0 -38 -2 -40 -86 -93 -48
-30 -122 -80 -165 -112 l-77 -58 -4 209 c-3 192 -5 211 -24 236 -68 92 -170
92 -238 0 -20 -26 -21 -45 -27 -319 -5 -289 -6 -293 -33 -357 -44 -105 -53
-122 -111 -190 -131 -155 -176 -338 -115 -475 27 -62 61 -88 123 -93 98 -8
136 27 191 180 88 243 107 293 121 315 9 13 91 89 183 170 228 200 497 376
664 434 78 27 93 29 241 29 l157 0 -25 -50 c-14 -28 -55 -94 -92 -148 -36 -53
-87 -131 -113 -172 -26 -41 -101 -160 -166 -265 -66 -104 -142 -228 -169 -275
-26 -47 -77 -127 -113 -179 -35 -52 -92 -153 -126 -225 -34 -72 -100 -196
-146 -276 -46 -80 -110 -200 -142 -268 -45 -94 -75 -140 -124 -195 -36 -40
-80 -101 -97 -137 -30 -60 -32 -71 -32 -172 l0 -108 37 -36 c70 -71 179 -54
224 33 10 21 38 68 62 105 23 37 60 105 81 151 48 104 201 285 530 626 283
293 406 401 518 453 116 53 117 53 110 -28 -4 -52 -15 -87 -57 -172 -28 -58
-73 -136 -99 -172 -57 -78 -97 -146 -179 -301 -33 -64 -100 -175 -147 -248
-87 -131 -105 -170 -278 -581 -36 -85 -93 -240 -127 -345 -34 -104 -82 -234
-107 -287 -78 -170 -80 -273 -8 -337 31 -26 44 -31 90 -31 44 0 59 5 86 27 34
29 66 92 93 185 24 84 104 183 363 451 258 268 368 370 475 444 91 63 260 153
351 188 65 24 316 80 324 71 7 -7 -63 -138 -125 -232 -33 -50 -95 -133 -138
-185 -105 -125 -149 -185 -235 -320 -185 -291 -358 -648 -464 -960 -20 -59
-47 -115 -70 -145 -21 -27 -46 -69 -56 -92 -25 -57 -43 -174 -35 -226 22 -145
184 -185 270 -67 14 19 44 90 67 158 46 139 4 79 398 563 241 295 441 493 633
628 81 57 186 123 232 148 75 40 91 45 138 42 l53 -3 -4 -55 c-5 -86 -33 -160
-114 -303 -41 -73 -128 -231 -194 -352 -66 -121 -168 -308 -226 -415 -134
-247 -165 -313 -228 -485 -184 -506 -217 -648 -170 -735 33 -63 112 -89 182
-62 28 11 200 204 353 396 49 61 199 275 333 476 558 834 686 1012 785 1093
73 59 324 227 370 247 24 10 67 22 97 26 l54 7 -5 -94 c-4 -107 -24 -158 -134
-354 -33 -60 -103 -184 -154 -275 -92 -164 -254 -421 -570 -903 -228 -346
-325 -515 -497 -862 -89 -179 -260 -624 -449 -1165 -30 -88 -43 -141 -44 -180
0 -96 52 -150 146 -150 40 0 51 5 84 38 30 29 44 57 64 123 35 115 76 180 300
479 105 140 272 376 371 525 100 148 204 302 231 340 43 61 163 252 322 515
67 111 234 359 330 490 170 233 703 719 894 816 27 14 53 23 56 20 11 -11 -16
-123 -48 -199 -29 -70 -189 -344 -386 -660 -43 -70 -200 -311 -348 -534 -224
-340 -376 -585 -376 -609 0 -3 -33 -71 -73 -152 -134 -269 -259 -593 -412
-1067 -48 -148 -105 -317 -127 -375 -48 -126 -60 -218 -34 -269 23 -44 71 -71
126 -71 77 0 127 44 145 127 10 51 89 162 249 353 80 96 217 273 304 394 197
274 580 793 641 867 79 97 362 410 451 499 149 150 291 263 308 246 12 -12
-19 -132 -51 -200 -41 -87 -214 -370 -372 -611 -231 -351 -399 -645 -595
-1040 -207 -419 -216 -439 -302 -670 -98 -263 -107 -293 -129 -415 -25 -139
-18 -181 36 -229 46 -40 93 -48 151 -26 50 19 38 5 350 415 272 357 691 949
799 1130 291 485 569 888 794 1150 210 245 482 511 722 708 78 64 229 172 240
172 14 0 -13 -109 -44 -174 -49 -103 -366 -641 -457 -776 -43 -63 -206 -294
-362 -513 -282 -394 -497 -731 -634 -993 -31 -60 -96 -174 -144 -254 -111
-185 -145 -253 -221 -442 -33 -84 -105 -247 -159 -363 -227 -488 -239 -538
-145 -625 22 -21 37 -25 85 -25 52 0 63 4 90 30 18 17 45 55 60 85 16 30 56
87 89 125 236 271 392 475 610 796 207 306 470 680 541 769 11 14 -46 -108
-128 -270 -180 -360 -257 -553 -322 -798 -27 -103 -60 -230 -74 -282 -36 -137
-42 -178 -81 -564 -44 -438 -48 -658 -12 -721 45 -81 158 -107 274 -63 84 31
156 109 379 408 284 382 564 707 564 656 0 -28 -45 -135 -137 -326 -199 -414
-268 -671 -261 -972 3 -130 5 -150 24 -175 72 -96 189 -99 302 -6 75 61 245
264 507 604 323 419 525 624 727 738 l61 34 -5 -124 c-4 -93 -11 -139 -27
-184 -13 -33 -44 -139 -71 -235 -26 -96 -65 -231 -86 -300 -37 -124 -37 -127
-41 -330 -4 -200 -4 -206 19 -250 27 -50 90 -90 143 -90 47 0 125 43 177 96
25 27 88 105 140 174 239 318 373 484 489 609 137 148 290 291 309 291 10 0
12 -56 6 -262 -3 -145 -10 -290 -15 -323 -5 -33 -10 -341 -10 -683 -1 -700 -4
-670 72 -720 59 -39 151 -38 226 4 94 51 217 187 336 372 22 34 43 62 48 62 4
0 7 -208 7 -463 0 -527 -2 -512 81 -555 83 -43 144 -14 259 124 97 117 238
262 272 280 59 31 58 33 58 -192 0 -231 7 -270 56 -313 70 -62 173 -41 213 43
20 40 21 60 21 317 0 295 -5 336 -48 382 -40 43 -77 58 -156 64 -162 12 -278
-28 -390 -137 -40 -38 -76 -70 -79 -70 -4 0 -7 198 -7 440 0 482 1 472 -59
523 -62 52 -148 44 -248 -22 -62 -42 -154 -156 -291 -363 -39 -58 -76 -109
-82 -113 -17 -11 -13 825 6 1004 11 111 14 234 12 488 l-3 340 -27 40 c-36 55
-87 78 -168 76 -127 -2 -238 -71 -459 -287 -170 -167 -287 -299 -406 -456
-117 -156 -205 -263 -205 -252 0 6 15 62 34 124 19 62 53 181 75 263 22 83 52
184 66 225 35 101 48 232 43 413 -5 164 -11 189 -65 238 -41 38 -95 53 -172
46 -53 -5 -88 -17 -177 -61 -265 -131 -508 -361 -839 -791 -273 -356 -349
-449 -353 -436 -9 27 33 183 87 324 33 84 102 242 154 352 115 241 136 301
150 425 18 166 -6 251 -83 291 -45 24 -195 26 -261 4 -133 -46 -324 -250 -705
-756 -107 -142 -197 -259 -199 -259 -3 0 -2 19 0 43 3 23 19 182 36 352 39
409 37 399 170 880 49 179 122 349 316 735 206 409 212 427 213 631 0 92 -3
112 -23 149 -41 77 -136 108 -240 79 -87 -24 -259 -230 -595 -714 -73 -104
-141 -201 -153 -215 -38 -46 134 271 266 490 131 217 174 281 509 750 175 245
350 499 389 565 38 66 122 208 186 315 231 389 262 473 264 705 1 161 -9 195
-67 240 -48 36 -140 45 -215 20 -56 -18 -251 -145 -385 -250 -91 -70 -356
-304 -454 -399 -66 -63 -245 -259 -372 -406 -174 -203 -397 -517 -626 -885
-89 -143 -206 -327 -259 -408 -93 -141 -456 -661 -477 -682 -17 -18 8 36 175
370 187 372 313 591 562 975 426 658 465 741 465 995 0 119 -2 136 -23 176
-37 70 -80 89 -205 89 -157 0 -213 -25 -387 -174 -123 -105 -202 -185 -414
-421 -236 -263 -297 -336 -406 -490 -43 -60 -119 -164 -169 -230 -51 -66 -147
-198 -215 -292 -68 -95 -125 -173 -127 -173 -2 0 6 24 17 53 12 28 38 100 59
158 62 172 101 260 227 515 109 219 143 275 370 615 137 206 280 426 318 489
38 63 90 147 116 186 76 114 258 420 316 533 81 157 113 290 113 466 0 161
-62 235 -198 235 -218 0 -477 -169 -937 -614 -179 -173 -246 -246 -324 -350
-133 -178 -291 -418 -447 -676 -71 -118 -161 -262 -201 -320 -40 -58 -107
-157 -149 -220 -95 -142 -105 -153 -64 -70 161 323 257 487 493 844 360 545
462 710 666 1081 193 350 196 358 206 580 13 287 -31 365 -208 365 -96 0 -265
-35 -344 -70 -90 -41 -396 -252 -477 -329 -123 -119 -265 -315 -732 -1016
-102 -154 -191 -284 -196 -290 -26 -28 36 100 162 330 48 88 135 250 195 360
59 110 146 266 192 347 141 247 173 349 173 553 0 123 -11 169 -53 213 -38 41
-74 53 -175 59 -158 9 -238 -7 -367 -73 -165 -84 -407 -258 -549 -394 -65 -63
-113 -104 -106 -90 38 72 169 258 249 353 158 188 303 425 336 552 18 70 20
198 4 246 -24 69 -92 119 -164 119 -56 0 -433 -77 -516 -105 -107 -37 -303
-136 -422 -215 -98 -65 -313 -249 -384 -329 l-33 -36 14 40 c58 169 96 246
207 415 48 75 123 204 167 287 44 83 110 194 146 247 70 100 154 267 181 360
13 44 16 91 13 218 -3 152 -5 165 -26 196 -40 55 -87 72 -202 72 -115 0 -169
-15 -315 -85 -62 -30 -123 -72 -197 -134 -60 -50 -108 -89 -108 -87 0 18 356
591 499 805 67 99 99 160 131 248 l22 61 3117 5 3116 4 645 31 c355 18 861 43
1125 57 264 13 665 29 890 35 389 10 659 26 1215 70 135 11 368 23 518 26
l272 7 0 -44 c0 -38 -15 -67 -128 -249 -154 -246 -187 -305 -285 -522 -91
-199 -168 -404 -202 -536 -60 -233 -114 -624 -156 -1121 -59 -715 -62 -917
-56 -4571 5 -3015 6 -3138 26 -3490 11 -201 30 -468 41 -595 20 -218 94 -825
125 -1020 20 -122 75 -548 75 -576 0 -20 -4 -21 -45 -16 -34 3 -70 21 -143 69
-229 154 -567 286 -887 348 -208 40 -353 41 -3090 38 -2915 -5 -2627 1 -3710
-73 -652 -44 -1020 -65 -1425 -80 -217 -8 -710 -33 -1095 -56 l-700 -42 -855
-1 -855 -1 3 60 c3 71 7 95 66 376 58 278 83 436 106 684 19 194 20 353 20
4923 l0 4723 40 147 c41 151 80 354 80 414 0 77 -68 134 -152 126 -85 -9 -127
-69 -148 -213 -15 -102 -34 -185 -71 -309 l-29 -99 0 -4636 c0 -2798 -4 -4715
-10 -4836 -16 -329 -46 -545 -132 -945 -48 -222 -51 -245 -55 -415 -5 -176 -4
-181 19 -214 12 -19 39 -43 59 -53 35 -18 76 -19 945 -19 500 0 945 3 989 6
284 20 1523 86 1780 95 324 11 900 43 1510 85 1012 69 863 66 3760 68 2780 2
2740 3 2945 -43 278 -62 565 -177 730 -292 141 -99 230 -128 393 -128 107 0
158 15 198 56 l34 35 3 143 c4 150 -9 276 -68 681 -96 650 -131 999 -165 1625
l-26 465 4 3500 3 3500 42 485 c60 693 118 1047 213 1305 112 306 217 517 404
814 69 109 132 218 141 242 8 24 18 91 21 149 9 173 -19 254 -101 291 -38 17
-68 18 -361 17 -176 -1 -345 -3 -375 -5z"/>
<path d="M28430 42021 c-71 -15 -114 -55 -125 -120 -11 -63 16 -111 119 -208
122 -117 305 -346 360 -453 61 -118 88 -200 151 -449 104 -419 151 -723 165
-1089 5 -133 12 -252 15 -265 3 -12 9 -96 15 -186 9 -133 15 -178 36 -235 18
-50 28 -106 34 -189 10 -134 27 -174 84 -201 66 -31 143 -11 182 49 38 58 28
265 -20 406 -26 79 -37 186 -56 574 -23 473 -64 747 -185 1232 -51 208 -101
355 -157 467 -50 99 -78 142 -186 276 l-84 105 1970 5 1971 5 27 21 c49 36 67
69 66 120 0 54 -22 89 -73 119 -34 20 -53 20 -2154 21 -1166 1 -2136 -1 -2155
-5z"/>
<path d="M31572 39453 c-13 -2 -41 -22 -61 -42 -38 -38 -39 -38 -94 -30 -91
12 -154 -9 -187 -64 -39 -64 -15 -158 47 -191 16 -8 58 -20 93 -26 36 -6 72
-16 82 -21 17 -9 18 -62 18 -1022 l0 -1012 -45 -55 c-25 -30 -50 -70 -56 -88
-21 -64 10 -135 72 -167 l29 -15 2 -919 c3 -915 3 -920 24 -948 11 -15 36 -38
55 -51 l34 -23 5 -107 c6 -107 6 -107 57 -197 28 -49 55 -103 59 -120 15 -68
68 -147 147 -221 64 -60 101 -85 186 -126 58 -28 147 -70 196 -94 50 -25 116
-49 148 -55 36 -6 224 -9 510 -6 l452 3 156 42 c85 23 281 69 434 102 153 34
339 81 414 105 75 24 217 68 316 99 239 72 308 99 510 194 94 44 206 95 250
112 114 45 426 228 569 333 66 49 191 136 277 193 452 299 786 606 1057 973
47 64 140 181 207 261 66 80 182 222 257 315 76 94 167 204 204 245 36 41 99
113 139 160 40 47 112 130 160 185 47 55 119 150 160 211 40 61 110 157 155
214 45 56 106 139 136 184 31 44 79 116 107 158 48 71 97 152 172 281 93 164
-43 308 -206 217 -151 -85 -382 -186 -458 -200 -35 -6 -121 -29 -190 -51 -80
-25 -182 -47 -281 -62 -146 -21 -187 -22 -725 -22 -515 1 -593 3 -805 23 -268
26 -593 71 -1020 142 -162 27 -333 54 -380 60 -134 18 -321 58 -490 106 -85
25 -265 65 -400 90 -184 34 -281 57 -390 94 -144 49 -282 85 -520 134 -210 44
-562 165 -905 311 -60 26 -198 80 -305 119 l-195 72 -5 54 c-3 30 -11 65 -18
77 -26 48 -101 78 -160 66z m335 -557 c81 -30 186 -71 233 -91 301 -131 713
-275 915 -319 66 -15 172 -38 235 -52 63 -14 196 -52 295 -84 140 -46 235 -69
430 -105 138 -25 302 -61 365 -80 145 -44 399 -99 555 -120 66 -9 210 -31 320
-50 430 -74 768 -121 1085 -152 157 -15 283 -18 825 -18 615 0 646 1 787 23
81 12 187 34 235 49 115 35 337 91 342 87 7 -6 -66 -111 -151 -217 -44 -55
-113 -150 -153 -211 -40 -61 -100 -141 -132 -177 -32 -36 -107 -124 -167 -195
-61 -71 -144 -167 -186 -214 -42 -47 -137 -161 -211 -255 -75 -93 -182 -226
-240 -295 -57 -69 -150 -186 -206 -260 -244 -326 -541 -601 -928 -858 -104
-69 -241 -164 -304 -210 -160 -119 -412 -266 -571 -333 -74 -31 -198 -87 -275
-124 -77 -37 -201 -87 -275 -111 -465 -149 -607 -189 -835 -239 -137 -30 -333
-76 -435 -102 l-185 -48 -425 0 -425 0 -111 55 c-60 30 -133 65 -160 77 -28
13 -76 46 -106 75 -45 44 -59 65 -78 123 -12 39 -37 93 -55 120 -32 49 -33 53
-37 186 -4 118 -7 141 -26 171 -13 20 -29 38 -36 41 -8 3 -26 31 -40 63 l-26
57 2 921 3 921 25 35 25 35 6 -285 c5 -259 8 -291 28 -355 36 -111 105 -233
181 -323 121 -141 196 -180 326 -169 125 10 173 59 261 267 l48 115 7 -80 c17
-181 90 -295 269 -414 206 -137 403 -33 499 264 22 68 40 103 40 77 0 -21 172
-193 215 -215 29 -15 65 -22 133 -25 110 -5 165 8 217 51 43 35 158 208 231
346 123 236 292 334 719 415 99 19 214 44 255 55 41 11 140 27 220 36 80 8
161 18 180 21 19 3 100 9 180 14 389 23 432 31 471 93 30 48 22 127 -16 167
-53 55 -73 56 -440 32 -82 -6 -181 -15 -220 -21 -38 -6 -135 -18 -215 -26 -80
-9 -185 -27 -235 -40 -49 -13 -174 -40 -276 -59 -205 -40 -418 -109 -514 -167
-167 -101 -253 -192 -350 -369 -32 -58 -81 -140 -109 -182 -46 -70 -54 -78
-82 -78 -26 0 -42 11 -83 55 -27 31 -55 73 -62 93 -6 20 -15 123 -19 227 -9
210 -21 263 -70 310 -34 33 -112 45 -160 25 -71 -29 -100 -89 -140 -287 -11
-54 -52 -192 -91 -308 -70 -206 -91 -259 -107 -269 -13 -8 -94 62 -124 106
l-28 41 0 376 c0 218 -5 395 -11 420 -20 89 -76 134 -165 134 -103 0 -177 -68
-215 -196 -80 -276 -128 -422 -187 -560 l-67 -159 -59 63 c-39 42 -73 91 -100
148 l-41 86 -5 645 -5 645 -24 41 c-63 110 -223 110 -291 -1 -12 -19 -24 -35
-26 -35 -2 0 -4 268 -4 595 0 327 2 595 5 595 2 0 71 -24 152 -54z"/>
<path d="M19734 16239 c-41 -12 -94 -72 -95 -107 -2 -50 3 -77 21 -112 33 -66
40 -185 40 -724 -1 -934 -19 -1134 -136 -1542 -72 -250 -113 -368 -272 -769
-32 -82 -114 -292 -182 -465 -297 -761 -499 -1250 -657 -1593 -68 -150 -245
-549 -393 -887 -437 -1002 -400 -923 -889 -1915 -128 -258 -273 -555 -324
-660 -120 -250 -355 -691 -438 -822 -8 -14 -24 -23 -39 -23 -36 0 -86 -34
-107 -72 -25 -47 -25 -209 0 -256 28 -51 72 -74 133 -69 67 5 93 26 172 140
121 175 378 645 556 1017 44 91 160 329 259 530 99 201 251 511 339 690 88
179 306 658 485 1065 387 884 408 929 535 1205 139 300 493 1176 890 2200 186
480 278 814 324 1170 14 102 17 263 21 893 3 422 5 767 6 767 1 0 25 -7 52
-16 28 -8 142 -39 255 -69 600 -156 1023 -291 1950 -622 766 -274 729 -260
1555 -591 330 -132 674 -269 765 -305 168 -67 487 -205 1120 -487 195 -87 450
-196 565 -243 205 -83 457 -187 1110 -456 1084 -447 1996 -809 2320 -921 193
-67 591 -205 885 -307 294 -102 639 -221 765 -265 591 -205 800 -275 1495
-503 l745 -244 735 -185 c723 -182 1292 -306 1740 -380 272 -45 668 -68 1275
-73 589 -5 639 -2 687 44 75 72 54 189 -42 227 -35 14 -105 16 -561 16 -573 0
-1008 21 -1269 61 -445 69 -995 188 -1808 394 l-693 175 -777 255 c-427 140
-862 284 -967 321 -263 91 -554 192 -1160 402 -1297 450 -1332 463 -2095 772
-1126 457 -1081 439 -1775 725 -137 57 -340 140 -450 185 -227 94 -467 198
-1147 499 -262 116 -480 211 -483 211 -3 0 -378 149 -833 331 -455 182 -912
361 -1017 399 -1448 523 -1893 670 -2555 840 -102 26 -246 66 -320 88 -110 34
-275 75 -283 71 -1 0 -16 -5 -33 -10z"/>
</g>
</svg>
